category_name,question_name,response,full
alg1_5_8,alg1_6_3_1,*ptr=&a;,1
alg1_5_8,alg1_6_3_1,"ptr = &a;",1
alg1_5_8,alg1_6_3_1,ptr=&a;,1
alg1_5_8,alg1_6_3_10,"n = *a;",1
alg1_5_8,alg1_6_3_10,"n= *a;",1
alg1_5_8,alg1_6_3_10,n=*a;,1
alg1_5_8,alg1_6_3_11,"n = a-2;",1
alg1_5_8,alg1_6_3_11,n=a-2;,1
alg1_5_8,alg1_6_3_12,n=a+4;,1
alg1_5_8,alg1_6_3_13,"int n = a1 - a2;",1
alg1_5_8,alg1_6_3_14,"n = *a1 + *a2;",1
alg1_5_8,alg1_6_3_14,"n =*a1+*a2;",1
alg1_5_8,alg1_6_3_14,n=*a1+(*a2);,1
alg1_5_8,alg1_6_3_14,n=*a1+*a2;,1
alg1_5_8,alg1_6_3_15,"*a = 5;",1
alg1_5_8,alg1_6_3_15,*a=5;,1
alg1_5_8,alg1_6_3_16,"printf(""%d"",*a);",1
alg1_5_8,alg1_6_3_2,"a = *ptr;",1
alg1_5_8,alg1_6_3_2,"a =*ptr;",1
alg1_5_8,alg1_6_3_2,a=*ptr;,1
alg1_5_8,alg1_6_3_3,"s = *(ptr-2);",1
alg1_5_8,alg1_6_3_3,"s=*(ptr - 2);",1
alg1_5_8,alg1_6_3_3,s=*(ptr-2);,1
alg1_5_8,alg1_6_3_4,"s = *(ptr+4);",1
alg1_5_8,alg1_6_3_4,"s =*(ptr+4);",1
alg1_5_8,alg1_6_3_4,s=*(ptr+4);,1
alg1_5_8,alg1_6_3_5,"int s=ptr1-ptr2;",1
alg1_5_8,alg1_6_3_6,"int s=ptr1+*ptr2;",1
alg1_5_8,alg1_6_3_6,s=ptr1+*ptr2;,1
alg1_5_8,alg1_6_3_7,(*ptr)++;,1
alg1_5_8,alg1_6_3_8,*ptr-=3;,1
alg1_5_8,alg1_6_3_9,*a=&n;,1
alg1_5_8,alg1_6_3_9,"a = &n;",1
alg1_5_8,alg1_6_3_9,a=&n;,1
alg1_5_8_demo_preg,1_5_8_preg_1,"*(ptr - 9) = *(ptr + 10);",1
alg1_5_8_demo_preg,1_5_8_preg_1,"*(ptr-9) = *(ptr+10);",1
alg1_5_8_demo_preg,1_5_8_preg_1,"*(ptr-9) =*(ptr+10);",1
alg1_5_8_demo_preg,1_5_8_preg_1,*(ptr-9)=*(ptr+10);,1
alg1_5_8_demo_preg,1_5_8_preg_2,"ptr -= 5;",1
alg1_5_8_demo_preg,1_5_8_preg_2,ptr-=5;,1
alg1_5_8_demo_preg,1_5_8_preg_3,"int A = ptr2-ptr1+1;",1
alg1_5_8_demo_preg,1_5_8_preg_3,"int A =ptr2-ptr1+1;",1
alg1_5_8_demo_preg,1_5_8_preg_3,"int a = ptr2 - ptr1 + 1;",1
alg1_5_8_demo_preg,1_5_8_preg_3,"int a= ptr2 - ptr1+1;",1
alg1_5_8_demo_preg,1_5_8_preg_3,"int a=ptr2-ptr1+1;",1
alg1_5_8_demo_preg,1_5_8_preg_3,"int len  = ptr2 - ptr1 + 1;",1
alg1_5_8_demo_preg,1_5_8_preg_3,"int length=ptr2-ptr1+1;",1
alg1_5_8_demo_preg,1_5_8_preg_3,"int ln=ptr2-ptr1+1;",1
alg1_5_8_demo_preg,1_5_8_preg_3,"int n = ptr2 - ptr1 + 1;",1
alg1_5_8_demo_preg,1_5_8_preg_3,"int size= ptr2-ptr1 +1;",1
alg1_5_8_demo_preg,1_5_8_preg_3,"int x=ptr2-ptr1+1;",1
alg1_5_8_demo_preg,1_5_8_preg_4,"*(ptr +length-1) =12;",1
alg1_5_8_demo_preg,1_5_8_preg_4,"*(ptr+length-1) = 12;",1
alg1_5_8_demo_preg,1_5_8_preg_4,*(ptr+length-1)=12;,1
alg1_5_8_demo_preg,1_5_8_preg_4,*(ptr-1+length)=12;,1
alg1_5_8_demo_preg,1_5_8_preg_5,"*(ptr - length + 1) = 27;",1
alg1_5_8_demo_preg,1_5_8_preg_5,"*(ptr - length +1)=27;",1
alg1_5_8_demo_preg,1_5_8_preg_5,"*(ptr - length+1) = 27;",1
alg1_5_8_demo_preg,1_5_8_preg_5,"*(ptr - length+1)=27;",1
alg1_5_8_demo_preg,1_5_8_preg_5,*(ptr-length+1)=27;,1
alg1_5_9,alg1_6_5_1,"*(a+1) = 2;",1
alg1_5_9,alg1_6_5_1,*(a+1)=2;,1
alg1_5_9,alg1_6_5_10,"scanf (""%f"", massiv);",1
alg1_5_9,alg1_6_5_10,"scanf(""%f"", &*massiv);",1
alg1_5_9,alg1_6_5_10,"scanf(""%f"", massiv);",1
alg1_5_9,alg1_6_5_10,"scanf(""%f"",&*massiv);",1
alg1_5_9,alg1_6_5_10,"scanf(""%f"",massiv);",1
alg1_5_9,alg1_6_5_11,"(*(*(massiv+1)+4)+= 3;",1
alg1_5_9,alg1_6_5_11,"*(*(massiv + 1)+4) += 3;",1
alg1_5_9,alg1_6_5_11,"*(*(massiv+1)+4) += 3;",1
alg1_5_9,alg1_6_5_11,*(*(massiv+1)+4)+=3;,1
alg1_5_9,alg1_6_5_12,*(*(solid+7)+16)=11;,1
alg1_5_9,alg1_6_5_13,"printf(""%d"", *(*(quater+8)+1));",1
alg1_5_9,alg1_6_5_13,"printf(""%d"",*(*(quater+8)+1));",1
alg1_5_9,alg1_6_5_14,"scanf(""%d"",*(a+i)+j);",1
alg1_5_9,alg1_6_5_15,"scanf (""%d"", *(mass+1)+2);",1
alg1_5_9,alg1_6_5_15,"scanf (""%d"",*(mass+1)+2);",1
alg1_5_9,alg1_6_5_15,"scanf(""%d"", &*(*(mass+1)+2));",1
alg1_5_9,alg1_6_5_15,"scanf(""%d"",&*(*(mass+1)+2));",1
alg1_5_9,alg1_6_5_15,"scanf(""%d"",*(mass+1)+2);",1
alg1_5_9,alg1_6_5_16,"scanf(""%x"", &*(q+80));",1
alg1_5_9,alg1_6_5_16,"scanf(""%x"", q+80);",1
alg1_5_9,alg1_6_5_16,"scanf(""%x"",&*(q+80));",1
alg1_5_9,alg1_6_5_16,"scanf(""%x"",q+80);",1
alg1_5_9,alg1_6_5_2,"*(b + 1) += 3;",1
alg1_5_9,alg1_6_5_2,"*(b+1) += 3;",1
alg1_5_9,alg1_6_5_2,"*(b+1) +=3;",1
alg1_5_9,alg1_6_5_2,*(b+1)+=3;,1
alg1_5_9,alg1_6_5_2,*(b+1)=*(b+1)+3;,1
alg1_5_9,alg1_6_5_3,"*(s+12) *= 1;",1
alg1_5_9,alg1_6_5_3,*(s+12)*=1;,1
alg1_5_9,alg1_6_5_4,"*(q+i) = 2;",1
alg1_5_9,alg1_6_5_4,*(q+i)=2;,1
alg1_5_9,alg1_6_5_5,"printf(""%d"", *(array+i));",1
alg1_5_9,alg1_6_5_5,"printf(""%d"",*(array+i));",1
alg1_5_9,alg1_6_5_6,"scanf(""%d"", n+1 );",1
alg1_5_9,alg1_6_5_6,"scanf(""%d"", n+1);",1
alg1_5_9,alg1_6_5_6,"scanf(""%d"",n + 1);",1
alg1_5_9,alg1_6_5_6,"scanf(""%d"",n+1);",1
alg1_5_9,alg1_6_5_7,*(*(g+1)+2)=3;,1
alg1_5_9,alg1_6_5_8,*(*(h+12)+1)=1;,1
alg1_5_9,alg1_6_5_9,"printf(""%f"", *(massiv+8));",1
alg1_5_9,alg1_6_5_9,"printf(""%f"",*(massiv+8));",1
alg1_5_9_demo_preg,1_5_9_preg_1,"*(arr+4) = *(arr+1);",1
alg1_5_9_demo_preg,1_5_9_preg_1,*(arr+4)=*(arr+1);,1
alg1_5_9_demo_preg,1_5_9_preg_2,"*(arr + 2) = *(*(another) + 1);",1
alg1_5_9_demo_preg,1_5_9_preg_2,"*(arr+2) = *(*another +1);",1
alg1_5_9_demo_preg,1_5_9_preg_2,"*(arr+2) = *(*another+1);",1
alg1_5_9_demo_preg,1_5_9_preg_2,*(arr+2)=*(*(another)+1);,1
alg1_5_9_demo_preg,1_5_9_preg_2,*(arr+2)=*(*(another+0)+1);,1
alg1_5_9_demo_preg,1_5_9_preg_2,*(arr+2)=*(*another+1);,1
alg1_5_9_demo_preg,1_5_9_preg_3,"*(*(arr + 2) + 11) = *(*(another + 4) + 5);",1
alg1_5_9_demo_preg,1_5_9_preg_3,"*(*(arr + 2)+11) = *(*(another +4)+5);",1
alg1_5_9_demo_preg,1_5_9_preg_3,"*(*(arr + 2)+11) = *(*(another+4)+5);",1
alg1_5_9_demo_preg,1_5_9_preg_3,*(*(arr+2)+11)=*(*(another+4)+5);,1
alg1_5_9_demo_preg,1_5_9_preg_4,"*(arr + 4) = *(*(* (another + 4) + 1)+ 4);",1
alg1_5_9_demo_preg,1_5_9_preg_4,"*(arr+4 )= *(*(*(another+4)+1)+4);",1
alg1_5_9_demo_preg,1_5_9_preg_4,"*(arr+4)= *(*(*(another+4)+1)+4);",1
alg1_5_9_demo_preg,1_5_9_preg_4,*(arr+4)=*(*(*(another+4)+1)+4);,1
alg1_5_9_demo_preg,1_5_9_preg_5,"*(*(*(arr+1)+4)+1) = *(*(*(another +5)+1)+2);",1
alg1_5_9_demo_preg,1_5_9_preg_5,"*(*(*(arr+1)+4)+1) = *(*(*(another+5)+1)+2);",1
alg1_5_9_demo_preg,1_5_9_preg_5,"*(*(*(arr+1)+4)+1)= *(*(*(another+5)+1)+2);",1
alg1_5_9_demo_preg,1_5_9_preg_5,*(*(*(arr+1)+4)+1)=*(*(*(another+5)+1)+2);,1
alg1_5_9_demo_preg,1_5_9_preg_6,"scanf(""%d"", arr + 10);",1
alg1_5_9_demo_preg,1_5_9_preg_6,"scanf(""%d"", arr+10);",1
alg1_5_9_demo_preg,1_5_9_preg_6,"scanf(""%d"",arr+10);",1
alg1_5_9_demo_preg,1_5_9_preg_7,"printf(""%c"", *(str + 1));",1
alg1_5_9_demo_preg,1_5_9_preg_7,"printf(""%c"", *(str+1));",1
alg1_5_9_demo_preg,1_5_9_preg_7,"printf(""%c"",*(str+1));",1
alg1_6_5,alg1_5_10_1,"sprintf(b, ""%x"", a);",1
alg1_6_5,alg1_5_10_1,"sprintf(b,""%X"", a);",1
alg1_6_5,alg1_5_10_1,"sprintf(b,""%X"",a);",1
alg1_6_5,alg1_5_10_10,"_itoa(a,b,2);",1
alg1_6_5,alg1_5_10_10,"itoa(a,b,2);",1
alg1_6_5,alg1_5_10_11,"sprintf (b,""%e"",a);",1
alg1_6_5,alg1_5_10_11,"sprintf(b, ""%e"", a);",1
alg1_6_5,alg1_5_10_11,"sprintf(b, ""%e"",a);",1
alg1_6_5,alg1_5_10_11,"sprintf(b,""%e"", a);",1
alg1_6_5,alg1_5_10_11,"sprintf(b,""%e"",a);",1
alg1_6_5,alg1_5_10_11,"ssprintf(b,""%e"",a);",1
alg1_6_5,alg1_5_10_12,"sprintf(b, ""%.5f"" , a);",1
alg1_6_5,alg1_5_10_12,"sprintf(b, ""%.5f"", a);",1
alg1_6_5,alg1_5_10_12,"sprintf(b,""%.5f"",a);",1
alg1_6_5,alg1_5_10_13,"sprintf(b, ""%8x"", a);",1
alg1_6_5,alg1_5_10_13,"sprintf(b,""%8X"",a);",1
alg1_6_5,alg1_5_10_14,"sprintf(b, ""%8d"",e);",1
alg1_6_5,alg1_5_10_14,"sprintf(b,""%8d"", e);",1
alg1_6_5,alg1_5_10_14,"sprintf(b,""%8d"",e);",1
alg1_6_5,alg1_5_10_15,"sprintf(b, ""%08d"", a);",1
alg1_6_5,alg1_5_10_15,"sprintf(b,""%08d"",a);",1
alg1_6_5,alg1_5_10_15,"sprintf(b,""%08i"",a);",1
alg1_6_5,alg1_5_10_2,"sprintf(b, ""%X"",a);",1
alg1_6_5,alg1_5_10_2,"sprintf(b, ""%x"", a);",1
alg1_6_5,alg1_5_10_2,"sprintf(b,""%X"",a);",1
alg1_6_5,alg1_5_10_3,"sscanf(b, ""%x"", &a);",1
alg1_6_5,alg1_5_10_3,"sscanf(b,""%X"", &a);",1
alg1_6_5,alg1_5_10_4,"sscanf(b, ""%o"", &a);",1
alg1_6_5,alg1_5_10_5,"itoa(a, b, 20);",1
alg1_6_5,alg1_5_10_5,"itoa(a,b,20);",1
alg1_6_5,alg1_5_10_6,a=atof(b);,1
alg1_6_5,alg1_5_10_6,"sscanf(b,""%f"",&a);",1
alg1_6_5,alg1_5_10_7,"itoa(a,b,10);",1
alg1_6_5,alg1_5_10_7,"sprintf(b, ""%d"",a);",1
alg1_6_5,alg1_5_10_7,"sprintf(b,""%d"",a);",1
alg1_6_5,alg1_5_10_9,"_itoa(a,b,16);",1
alg1_6_5,alg1_5_10_9,"sprintf(b, ""%x"", a);",1
alg1_6_5,alg1_5_10_9,"sprintf(b,""%x"",a);",1
alg1_6_5_demo_preg,1_6_5_preg_1,"x = atoi(qwe);",1
alg1_6_5_demo_preg,1_6_5_preg_1,"x =atoi(qwe);",1
alg1_6_5_demo_preg,1_6_5_preg_1,x=atoi(qwe);,1
alg1_6_5_demo_preg,1_6_5_preg_2,"itoa (x,str,12);",1
alg1_6_5_demo_preg,1_6_5_preg_2,"itoa(x, str, 12);",1
alg1_6_5_demo_preg,1_6_5_preg_2,"itoa(x,str,12);",1
alg1_6_5_demo_preg,1_6_5_preg_3,"sscanf(qwe, ""%x"", &num);",1
alg1_6_5_demo_preg,1_6_5_preg_3,"sscanf(qwe,""%x"",&num);",1
alg1_6_5_demo_preg,1_6_5_preg_4,"itoa(x, str, 8);",1
alg1_6_5_demo_preg,1_6_5_preg_4,"itoa(x,str,8);",1
alg1_6_5_demo_preg,1_6_5_preg_4,"sprintf(str, ""%o"", x);",1
alg1_6_5_demo_preg,1_6_5_preg_4,"sprintf(str,""%o"", x);",1
alg1_6_5_demo_preg,1_6_5_preg_4,"sprintf(str,""%o"",x);",1
alg1_6_5_demo_preg,1_6_5_preg_5,"itoa (num, str, 20);",1
alg1_6_5_demo_preg,1_6_5_preg_5,"itoa(num, str, 20);",1
alg1_6_5_demo_preg,1_6_5_preg_5,"itoa(num,str,20);",1
alg1_6_5_demo_preg,1_6_5_preg_5,"sprintf(str, ""%d"", num, 20);",1
alg1_6_5_demo_preg,1_6_5_preg_6,"sscanf(qwe, ""%f"", &x);",1
alg1_6_5_demo_preg,1_6_5_preg_6,"sscanf(qwe,""%f"",&x);",1
alg1_6_5_demo_preg,1_6_5_preg_6,"x = atof(qwe);",1
alg1_6_5_demo_preg,1_6_5_preg_6,x=atof(qwe);,1
alg1_6_5_demo_preg,1_6_5_preg_7,"sprintf(str, ""%e"", x);",1
alg1_6_5_demo_preg,1_6_5_preg_7,"sprintf(str, ""%e"",x);",1
alg1_6_5_demo_preg,1_6_5_preg_7,"sprintf(str,""%e"", x);",1
alg1_6_5_demo_preg,1_6_5_preg_7,"sprintf(str,""%e"",x);",1
alg1_6_5_training,alg1_6_5_1,"sprintf(st, ""%.7f"", r);",1
alg1_6_5_training,alg1_6_5_1,"sprintf(st, ""%.7f"",r);",1
alg1_6_5_training,alg1_6_5_1,"sprintf(st,""%.7f"", r);",1
alg1_6_5_training,alg1_6_5_1,"sprintf(st,""%.7f"",r);",1
alg1_6_5_training,alg1_6_5_2,"N = atoi(str);",1
alg1_6_5_training,alg1_6_5_2,"N =atoi(str);",1
alg1_6_5_training,alg1_6_5_2,"N= atoi (str);",1
alg1_6_5_training,alg1_6_5_2,"N= atoi(str);",1
alg1_6_5_training,alg1_6_5_2,N=atoi(str);,1
alg1_6_5_training,alg1_6_5_2,"sscanf(str, ""%d"", &N);",1
alg1_6_5_training,alg1_6_5_2,"sscanf(str,""%d"", &N);",1
alg1_6_5_training,alg1_6_5_4,"_itoa(N,st,10);",1
alg1_6_5_training,alg1_6_5_4,"itoa (N, st, 10);",1
alg1_6_5_training,alg1_6_5_4,"itoa(N, st, 10);",1
alg1_6_5_training,alg1_6_5_4,"itoa(N,st,10);",1
alg1_6_5_training,alg1_6_5_4,"sprintf (st, ""%d"", N);",1
alg1_6_5_training,alg1_6_5_4,"sprintf( st, ""%d"", N);",1
alg1_6_5_training,alg1_6_5_4,"sprintf(st , ""%d"" , N);",1
alg1_6_5_training,alg1_6_5_4,"sprintf(st, ""%d"", N);",1
alg1_6_5_training,alg1_6_5_5,"N = atof(st);",1
alg1_6_5_training,alg1_6_5_5,"N =atof(st);",1
alg1_6_5_training,alg1_6_5_5,"N= atof(st);",1
alg1_6_5_training,alg1_6_5_5,N=atof(st);,1
alg1_6_5_training,alg1_6_5_5,"sscanf(st, ""%f"", &N);",1
alg1_7_7,alg1_6_6_1,"pointer  -> i =0;",1
alg1_7_7,alg1_6_6_1,"pointer->i = 0;",1
alg1_7_7,alg1_6_6_1,pointer->i=0;,1
alg1_7_7,alg1_6_6_10,(*drop).i+=(*drop).j;,1
alg1_7_7,alg1_6_6_10,drop->i+=drop->j;,1
alg1_7_7,alg1_6_6_11,"drop->i -= drop->j;",1
alg1_7_7,alg1_6_6_11,drop->i-=drop->j;,1
alg1_7_7,alg1_6_6_12,"drop->k = drop->i-drop->j;",1
alg1_7_7,alg1_6_6_12,drop->k=drop->i-drop->j;,1
alg1_7_7,alg1_6_6_13,drop->k=100;,1
alg1_7_7,alg1_6_6_14,"printf(""%d"", drop->i);",1
alg1_7_7,alg1_6_6_14,"printf(""%d"",drop->i);",1
alg1_7_7,alg1_6_6_15,"scanf(""%d"",&sent->i);",1
alg1_7_7,alg1_6_6_16,"scanf(""%d"", &sent->i);",1
alg1_7_7,alg1_6_6_16,"scanf(""%d"",&sent->i);",1
alg1_7_7,alg1_6_6_2," pointer->i =pointer->i+2;",1
alg1_7_7,alg1_6_6_2,"pointer->i =pointer->i+2;",1
alg1_7_7,alg1_6_6_2,pointer->i+=2;,1
alg1_7_7,alg1_6_6_3,pointer->i-=3;,1
alg1_7_7,alg1_6_6_4,"a=pointer->i  +  pointer->j",1
alg1_7_7,alg1_6_6_4,"pointer ->i + pointer->j",1
alg1_7_7,alg1_6_6_4,pointer->i+pointer->j,1
alg1_7_7,alg1_6_6_4,pointer->i+pointer->j+pointer->k,1
alg1_7_7,alg1_6_6_5,"pointer->i - pointer->j",1
alg1_7_7,alg1_6_6_5,pointer->i-pointer->j,1
alg1_7_7,alg1_6_6_5,pointer->i-pointer->j;,1
alg1_7_7,alg1_6_6_6,"pointer -> i*pointer->j",1
alg1_7_7,alg1_6_6_6,"pointer -> i*pointer->j;",1
alg1_7_7,alg1_6_6_7,(*sent).i=j;,1
alg1_7_7,alg1_6_6_7,sent->i=j;,1
alg1_7_7,alg1_6_6_8,"scanf(""%d"", &sent->j);",1
alg1_7_7,alg1_6_6_8,"scanf(""%d"",&sent->j);",1
alg1_7_7,alg1_6_6_9,"drop -> i=10;",1
alg1_7_7,alg1_6_6_9,"drop->i = 10;",1
alg1_7_7,alg1_6_6_9,drop->i=10;,1
alg1_7_7_demo_preg,1_7_7_preg_1,"res = left(a->x, b-y);",1
alg1_7_7_demo_preg,1_7_7_preg_1,"res = left(a->x, b.y);",1
alg1_7_7_demo_preg,1_7_7_preg_1,"res=left(a->x, b-y);",1
alg1_7_7_demo_preg,1_7_7_preg_1,"res=left(a->x, b.y);",1
alg1_7_7_demo_preg,1_7_7_preg_2,"do_smthng(obj->width,  obj->height, &obj-> data);",1
alg1_7_7_demo_preg,1_7_7_preg_2,"do_smthng(obj->width, obj->height, &(obj->data));",1
alg1_7_7_demo_preg,1_7_7_preg_2,"do_smthng(obj->width, obj->height, &obj->data);",1
alg1_7_7_demo_preg,1_7_7_preg_2,"do_smthng(obj->width, obj->height,&obj->data);",1
alg1_7_7_demo_preg,1_7_7_preg_2,"do_smthng(obj->width,obj->height,&obj->data);",1
alg1_7_7_demo_preg,1_7_7_preg_3,"puts ( a.string + 147);",1
alg1_7_7_demo_preg,1_7_7_preg_3,"puts ( a.string+147);",1
alg1_7_7_demo_preg,1_7_7_preg_3,puts(a.string+147);,1
alg1_7_7_demo_preg,1_7_7_preg_4,free(node->children+1);,1
alg1_7_7_demo_preg,1_7_7_preg_4,free(node->children[1]);,1
alg1_7_7_demo_preg,1_7_7_preg_5,"compare_tags( tnfa.transitions[0].tags,tnfa.transitions[111].tags);",1
alg1_7_7_demo_preg,1_7_7_preg_5,"compare_tags((*tnfa.transitions).tags, (*(tnfa.transitions+111)).tags);",1
alg1_7_7_demo_preg,1_7_7_preg_5,"compare_tags(tnfa.transitions[0].tags, *(tnfa.transitions+111).tags);",1
alg1_7_7_demo_preg,1_7_7_preg_5,"compare_tags(tnfa.transitions[0].tags, tnfa.transitions[111].tags);",1
alg1_7_7_demo_preg,1_7_7_preg_5,"compare_tags(tnfa.transitions[0].tags,tnfa.transitions[111].tags);",1
alg1_7_7_training,alg1_7_7_1_training,"SortPoints(&v1->Pos.x, &v1->Pos.y, &v2.Pos.x, &v2.Pos.y);",1
alg1_7_7_training,alg1_7_7_1_training,"SortPoints(&v1->Pos.x,&v1->Pos.y,&v2.Pos.x,&v2.Pos.y);",1
alg1_7_7_training,alg1_7_7_2_training,"Initialize (&Arr[i].x, &Arr[i].y, Arr[i].NextPoint);",1
alg1_7_7_training,alg1_7_7_2_training,"Initialize(&Arr[i].x, &Arr[i].y, Arr[i].NextPoint);",1
alg1_7_7_training,alg1_7_7_2_training,"Initialize(&Arr[i].x,&Arr[i].y,Arr[i].NextPoint);",1
alg1_7_7_training,alg1_7_7_3_training,"*ptr = GetDistance(Arr[0].x, Arr[0].y, Arr[0].NextPoint->x, Arr[0].NextPoint->y); ",1
alg1_7_7_training,alg1_7_7_3_training,"*ptr = GetDistance(Arr[0].x,Arr[0].y,Arr[0].NextPoint->x,Arr[0].NextPoint->y);",1
alg1_7_7_training,alg1_7_7_3_training,"*ptr=GetDistance (Arr[0].x, Arr[0].y,Arr[0].NextPoint->x,Arr[0].NextPoint->y);",1
alg1_7_7_training,alg1_7_7_3_training,"*ptr=GetDistance(Arr[0].x, Arr[0].y, Arr[0].NextPoint->x, Arr[0].NextPoint->y);",1
alg1_7_7_training,alg1_7_7_3_training,"*ptr=GetDistance(Arr[0].x,Arr[0].y,Arr[0].NextPoint->x,Arr[0].NextPoint->y);",1
alg1_7_7_training,alg1_7_7_4_training,"printf(""%d"", sMultiply(a.x, a.y, b->x, b->y));",1
alg1_7_7_training,alg1_7_7_4_training,"printf(""%d"",sMultiply(a.x,a.y,b->x,b->y));",1
alg1_7_7_training,alg1_7_7_5_training,"Scale (&MyPoint.x, &MyPoint.y, &MyPoint.z, UserScale);",1
alg1_7_7_training,alg1_7_7_5_training,"Scale (&MyPoint.x,&MyPoint.y,&MyPoint.z, UserScale);",1
alg1_7_7_training,alg1_7_7_5_training,"Scale (&MyPoint.x,&MyPoint.y,&MyPoint.z,UserScale);",1
alg1_7_7_training,alg1_7_7_5_training,"Scale(&MyPoint.x, &MyPoint.y, &MyPoint.z, UserScale);",1
alg1_7_8,alg1_6_7_1,"printf(""%d"",Answers->Contents.Number + (Answers+1)->Contents.Number);",1
alg1_7_8,alg1_6_7_1,"printf(""%d"",Answers->Contents.Number+(Answers+1)->Contents.Number);",1
alg1_7_8,alg1_6_7_10,"printf(""%c"",*(Answers+10)->Type);",1
alg1_7_8,alg1_6_7_11,(*(Answers+5)).Contents->Number=(*Answers).Contents->Number;,1
alg1_7_8,alg1_6_7_11,(Answers+5)->Contents->Number=Answers->Contents->Number;,1
alg1_7_8,alg1_6_7_12,"scanf(""%d"", (Answers + 4) -> Contents.Number);",1
alg1_7_8,alg1_6_7_12,"scanf(""%d"", (Answers+4)->Contents.Number);",1
alg1_7_8,alg1_6_7_12,"scanf(""%d"",(Answers+4)->Contents.Number);",1
alg1_7_8,alg1_6_7_13,"printf(""%d %d"", (Points+2)->X, (Points+2)->Y);",1
alg1_7_8,alg1_6_7_13,"printf(""%d %d"",(Points+2)->X, (Points+2)->Y);",1
alg1_7_8,alg1_6_7_13,"printf(""%d %d"",(Points+2)->X,(Points+2)->Y);",1
alg1_7_8,alg1_6_7_14,"scanf(""%d%d"",&(Points+2)->X,&(Points+2)->Y);",1
alg1_7_8,alg1_6_7_15,"(Points +2)->X=(Points+1)->Y; (Points+2)->Y=(Points+1)->X;",1
alg1_7_8,alg1_6_7_15,"(Points+2)->X=(Points+1)->Y; (Points+2)->Y=(Points+1)->X;",1
alg1_7_8,alg1_6_7_15,(Points+2)->X=(Points+1)->Y;(Points+2)->Y=(Points+1)->X;,1
alg1_7_8,alg1_6_7_2,"printf(""%f"",*(Values.F+2));",1
alg1_7_8,alg1_6_7_4,"scanf(""%s"", (Values+3)->String);",1
alg1_7_8,alg1_6_7_4,"scanf(""%s"",(Values+3)->String);",1
alg1_7_8,alg1_6_7_5,"printf(""%s"", (Values+2)->String);",1
alg1_7_8,alg1_6_7_8,"scanf(""%c"", Answers. Type+4);",1
alg1_7_8,alg1_6_7_8,"scanf(""%c"", Answers.Type+4);",1
alg1_7_8,alg1_6_7_8,"scanf(""%c"",Answers.Type+4);",1
alg1_7_8,alg1_6_7_9,"printf(""%d"",*(Answers.Contents->Number+5));",1
alg1_7_8_demo_preg,1_7_8_preg_1,"printf(""%u"", (*(crew+2)).id);",1
alg1_7_8_demo_preg,1_7_8_preg_1,"printf(""%u"", (crew+2)->id);",1
alg1_7_8_demo_preg,1_7_8_preg_1,"printf(""%u"", *(crew+2).id);",1
alg1_7_8_demo_preg,1_7_8_preg_1,"printf(""%u"",(*(crew+2)).id);",1
alg1_7_8_demo_preg,1_7_8_preg_2," printf(""%d"", *((elements+1)->RGB+1));",1
alg1_7_8_demo_preg,1_7_8_preg_2,"printf(""%d"", *((elements+1)->RGB+1));",1
alg1_7_8_demo_preg,1_7_8_preg_2,"printf(""%d"",*((elements+1)->RGB+1));",1
alg1_7_8_demo_preg,1_7_8_preg_3," printf(""%d"", *(vect.elements+vect.count-1));",1
alg1_7_8_demo_preg,1_7_8_preg_3,"printf(""%d"", *(vect.elements+vect.count-1));",1
alg1_7_8_demo_preg,1_7_8_preg_3,"printf(""%d"",*(vect.elements+vect.count-1));",1
alg1_7_8_demo_preg,1_7_8_preg_4,"scanf(""%d"",  (points+3)->temperature);",1
alg1_7_8_demo_preg,1_7_8_preg_4,"scanf(""%d"", (*(points+3)).temperature);",1
alg1_7_8_demo_preg,1_7_8_preg_4,"scanf(""%d"", (points+3)->temperature);",1
alg1_7_8_demo_preg,1_7_8_preg_5,"printf(""%d"", (*(players+1)).score);",1
alg1_7_8_demo_preg,1_7_8_preg_5,"printf(""%d"", (players+1)->score);",1
alg1_7_8_demo_preg,1_7_8_preg_5,"printf(""%d"", *(players+1).score);",1
alg1_7_8_demo_preg,1_7_8_preg_5,"printf(""%d"",( players+1)->score);",1
alg1_7_8_demo_preg,1_7_8_preg_5,"printf(""%d"",(*(players+1)).score);",1
alg1_7_8_demo_preg,1_7_8_preg_5,"printf(""%d"",(players+1)->score);",1
alg1_7_8_training,alg1_7_8_1_training,"scanf (""%d %d"", &(Points+i)->R, &(Points+i)->Angle);",1
alg1_7_8_training,alg1_7_8_1_training,"scanf(""%d %d"", &(Points+i)->R, &(Points+i)->Angle);",1
alg1_7_8_training,alg1_7_8_1_training,"scanf(""%d%d"", &(Points + i)->R, &(Points + i)->Angle);",1
alg1_7_8_training,alg1_7_8_1_training,"scanf(""%d%d"", &(Points+i)->R, &(Points+i)->Angle);",1
alg1_7_8_training,alg1_7_8_1_training,"scanf(""%d%d"",&(Points+i)->R,&(Points+i)->Angle);",1
alg1_7_8_training,alg1_7_8_2_training,"res = GetMiddle(Points->X, Points->Y, (Points + 1)->X, (Points + 1)->Y);",1
alg1_7_8_training,alg1_7_8_2_training,"res=GetMiddle(Points->X,Points->Y,(Points+1)->X,(Points+1)->Y);",1
alg1_7_8_training,alg1_7_8_3_training,"*res = min(&ptr->a, &ptr->b);",1
alg1_7_8_training,alg1_7_8_3_training,"*res = min(&ptr->a,&ptr->b);",1
alg1_7_8_training,alg1_7_8_3_training,"*res=min(&ptr->a, &ptr->b);",1
alg1_7_8_training,alg1_7_8_3_training,"*res=min(&ptr->a,&ptr->b);",1
alg1_7_8_training,alg1_7_8_4_training,"puts( (Personnel + 5)->FIO );",1
alg1_7_8_training,alg1_7_8_4_training,puts((Personnel+5)->FIO);,1
alg1_7_8_training,alg1_7_8_5_training,"puts ( List[3].CPU );",1
alg1_7_8_training,alg1_7_8_5_training,"puts(List[3],CPU);",1
alg1_7_8_training,alg1_7_8_5_training,puts(List[3].CPU);,1
alg2_1_3,alg2_1_3-01,"i =0; i<N;i++",1
alg2_1_3,alg2_1_3-01,i=0;i<N;i++,1
alg2_1_3,alg2_1_3-01,i=N-1;i>=0;i--,1
alg2_1_3,alg2_1_3-02,"int arr[N];",1
alg2_1_3,alg2_1_3-04,str[4]=string[9];,1
alg2_1_3,alg2_1_3-05,"return a+b;",1
alg2_1_3,alg2_1_3-06,"if (i == 5)",1
alg2_1_3,alg2_1_3-06,"if (i ==5)",1
alg2_1_3,alg2_1_3-06,"if (i==5)",1
alg2_1_3,alg2_1_3-06,if(i==5),1
alg2_1_3,alg2_1_3-07,"if (str[0]=='q')",1
alg2_1_3,alg2_1_3-07,if(*str=='q'),1
alg2_1_3,alg2_1_3-07,if(str[0]=='q'),1
alg2_1_3,alg2_1_3-08,"*ptr = i;",1
alg2_1_3,alg2_1_3-08,*ptr=i;,1
alg2_1_3,alg2_1_3-08,ptr=&i;,1
alg2_1_3,alg2_1_3-09,"scanf(""%d"", &i);",1
alg2_1_3,alg2_1_3-09,"scanf(""%d"",&i);",1
alg2_1_3,alg2_1_3-10,"case 3:",1
alg2_1_3,alg2_1_3-11,(i<100);,1
alg2_1_3,alg2_1_3-12,i<100,1
alg2_1_3,alg2_1_3-12,i<=99,1
alg2_1_3,alg2_1_3-13,str,1
alg2_1_3_demo_preg,2_1_3_preg_1,"i < 10 && arr[i] >= 0",1
alg2_1_3_demo_preg,2_1_3_preg_1,"i<10 && arr[i]>=0",1
alg2_1_3_demo_preg,2_1_3_preg_1,"i<10 &&arr[i]>=0",1
alg2_1_3_demo_preg,2_1_3_preg_1,"i<10&& arr[i]>=0",1
alg2_1_3_demo_preg,2_1_3_preg_1,i<10&&arr[i]>=0,1
alg2_1_3_demo_preg,2_1_3_preg_2,"!(arr[i]%5) && arr[i] > 0",1
alg2_1_3_demo_preg,2_1_3_preg_2,"!(arr[i]%5) && arr[i]>0",1
alg2_1_3_demo_preg,2_1_3_preg_2,!(arr[i]%5)&&arr[i]>0,1
alg2_1_3_demo_preg,2_1_3_preg_2,"arr [i]>0 && arr [i] % 5==0",1
alg2_1_3_demo_preg,2_1_3_preg_2,"arr[i]%5 ==0 && arr[i]>0",1
alg2_1_3_demo_preg,2_1_3_preg_2,"arr[i]%5==0&& arr[i]>0",1
alg2_1_3_demo_preg,2_1_3_preg_2,"arr[i]>0 && arr[i]%5==0",1
alg2_1_3_demo_preg,2_1_3_preg_2,arr[i]>0&&arr[i]%5==0,1
alg2_1_3_demo_preg,2_1_3_preg_3,"""%d"", &arr[i]",1
alg2_1_3_demo_preg,2_1_3_preg_3,"""%d"", arr[i]",1
alg2_1_3_demo_preg,2_1_3_preg_3,"""%d"",&arr[i]",1
alg2_1_3_demo_preg,2_1_3_preg_3,"""%d"",arr[i]",1
alg2_1_3_demo_preg,2_1_3_preg_3,"""%i"",&arr[i]",1
alg2_1_3_demo_preg,2_1_3_preg_4,"printf (""how do they \"print double-quotes\""");",1
alg2_1_3_demo_preg,2_1_3_preg_4,"printf(""how do they \"print double-quotes\""");",1
alg2_1_3_demo_preg,2_1_3_preg_4,"puts(""how do they \"print double-quotes\""");",1
alg2_1_3_demo_preg,2_1_3_preg_5,"if (code<0) puts(""incorrect"");",1
alg2_1_3_demo_preg,2_1_3_preg_5,"if (code<0) {puts(""incorrect"");}",1
alg2_1_3_demo_preg,2_1_3_preg_5,"if (code<0){puts(""incorrect"");}",1
alg2_1_3_demo_preg,2_1_3_preg_5,"if(code<0) puts(""incorrect"");",1
alg2_1_3_demo_preg,2_1_3_preg_5,"if(code<0)puts(""incorrect"");",1
alg2_1_3_demo_preg,2_1_3_preg_5,"if(code<0){puts(""incorrect"");}",1
